…
The entire ranking is

``` r
select(arrange(teams, desc(salary)), team)
```

    ## # A tibble: 30 x 1
    ##     team
    ##    <chr>
    ##  1   CLE
    ##  2   LAC
    ##  3   TOR
    ##  4   MEM
    ##  5   SAS
    ##  6   DET
    ##  7   POR
    ##  8   ORL
    ##  9   CHO
    ## 10   WAS
    ## # ... with 20 more rows
…
The entire ranking is

``` r
select(arrange(teams, desc(points)), team)
```

    ## # A tibble: 30 x 1
    ##     team
    ##    <chr>
    ##  1   GSW
    ##  2   LAC
    ##  3   MIN
    ##  4   PHO
    ##  5   BOS
    ##  6   DEN
    ##  7   SAS
    ##  8   TOR
    ##  9   MIL
    ## 10   OKC
    ## # ... with 20 more rows
…
The entire ranking is

``` r
select(arrange(teams, desc(efficiency)), team)
```

    ## # A tibble: 30 x 1
    ##     team
    ##    <chr>
    ##  1   CLE
    ##  2   GSW
    ##  3   DEN
    ##  4   NOP
    ##  5   PHI
    ##  6   TOR
    ##  7   HOU
    ##  8   MIL
    ##  9   MIA
    ## 10   SAC
    ## # ... with 20 more rows
…
Perform a principal components analysis (PCA) on the following variables, to use the first principal component (PC1) as another index to rank the teams:

``` r
# select the variables that we are interested in from teams
focus <- teams[, -c(1, 2, 3, 7, 15)]
# create pca object (containnig all the PC's)
pca <- prcomp(focus, scale. = TRUE)
# add PC1 PC2 back to teams
teams <- mutate(teams, pc1 = pca$x[ ,1], pc2 = pca$x[ ,2])
# rearrrange team by PC1 in descending order
select(arrange(teams, desc(pc1)), team)
```

    ## # A tibble: 30 x 1
    ##     team
    ##    <chr>
    ##  1   GSW
    ##  2   MIN
    ##  3   SAS
    ##  4   PHO
    ##  5   LAC
    ##  6   BOS
    ##  7   OKC
    ##  8   MIL
    ##  9   MIA
    ## 10   DEN
    ## # ... with 20 more rows
…
Perform a principal components analysis (PCA) on the following variables, to use the first principal component (PC1) as another index to rank the teams:

``` r
# select the variables that we are interested in from teams
focus <- teams[, -c(1, 2, 3, 7, 15)]
# create pca object (containnig all the PC's)
pca <- prcomp(focus, scale. = TRUE)
# add PC1 PC2 back to teams
teams_with_pc <- mutate(teams, pc1 = pca$x[ ,1], pc2 = pca$x[ ,2])
# rearrrange team by PC1 in descending order
select(arrange(teams_with_pc, desc(pc1)), team)
```

    ## # A tibble: 30 x 1
    ##     team
    ##    <chr>
    ##  1   GSW
    ##  2   MIN
    ##  3   SAS
    ##  4   PHO
    ##  5   LAC
    ##  6   BOS
    ##  7   OKC
    ##  8   MIL
    ##  9   MIA
    ## 10   DEN
    ## # ... with 20 more rows
…
Use the scaled PC1 to rank the teams:

``` r
select(arrange(teams_with_pc, desc(rs_pc1)), team)
```

    ## # A tibble: 30 x 1
    ##     team
    ##    <chr>
    ##  1   GSW
    ##  2   MIN
    ##  3   SAS
    ##  4   PHO
    ##  5   LAC
    ##  6   BOS
    ##  7   OKC
    ##  8   MIL
    ##  9   MIA
    ## 10   DEN
    ## # ... with 20 more rows
